[
    ["R Carlos M Rodri Franc 229(Esc Mt Novo)", [
        ["08:00", "1"],
        ["12:00", "1"],
        ["15:00", "1"],
        ["19:00", "1"],
        ["08:45", "3"],
        ["09:30", "3"],
        ["10:15", "3"],
        ["11:00", "3"],
        ["13:00", "3"],
        ["14:00", "3"],
        ["16:00", "4"],
        ["16:45", "4"],
        ["17:30", "4"],
        ["18:15", "4"],
        ["09:00", "5"],
        ["10:00", "5"],
        ["18:00", "7"],
        ["17:00", "8"]
    ]],
    ["Lgo Gago Coutinho 5 - Igreja Matriz", [
        ["08:02", "1"],
        ["12:02", "1"],
        ["15:02", "1"],
        ["19:02", "1"],
        ["08:47", "3"],
        ["09:32", "3"],
        ["10:17", "3"],
        ["11:02", "3"],
        ["13:02", "3"],
        ["14:02", "3"],
        ["16:02", "4"],
        ["16:47", "4"],
        ["17:32", "4"],
        ["18:17", "4"],
        ["09:02", "5"],
        ["10:02", "5"],
        ["18:02", "7"],
        ["17:02", "8"]
    ]],
    ["R Carlos M Rodri Franc 229(Esc Mt Novo)", [
        ["08:03", "1"],
        ["12:03", "1"],
        ["15:03", "1"],
        ["19:03", "1"],
        ["08:48", "3"],
        ["09:33", "3"],
        ["10:18", "3"],
        ["11:03", "3"],
        ["13:03", "3"],
        ["14:03", "3"],
        ["16:03", "4"],
        ["16:48", "4"],
        ["17:33", "4"],
        ["18:18", "4"],
        ["09:03", "5"],
        ["10:03", "5"],
        ["18:03", "7"],
        ["17:03", "8"]
    ]],
    ["R Doutor Ciprião De Figueiredo", [
        ["08:04", "1"],
        ["12:04", "1"],
        ["15:04", "1"],
        ["19:04", "1"],
        ["08:49", "3"],
        ["09:34", "3"],
        ["10:19", "3"],
        ["11:04", "3"],
        ["13:04", "3"],
        ["14:04", "3"],
        ["16:04", "4"],
        ["16:49", "4"],
        ["17:34", "4"],
        ["18:19", "4"],
        ["09:04", "5"],
        ["10:04", "5"],
        ["18:04", "7"],
        ["17:04", "8"]
    ]],
    ["R Prof Leite Da Cunha (Biblioteca Mun)", [
        ["08:04", "1"],
        ["12:04", "1"],
        ["15:04", "1"],
        ["19:04", "1"],
        ["08:49", "3"],
        ["09:34", "3"],
        ["10:19", "3"],
        ["11:04", "3"],
        ["13:04", "3"],
        ["14:04", "3"],
        ["16:04", "4"],
        ["16:49", "4"],
        ["17:34", "4"],
        ["18:19", "4"],
        ["09:04", "5"],
        ["10:04", "5"],
        ["18:04", "7"],
        ["17:04", "8"]
    ]],
    ["Av Da Restauração (Eb D Manuel I)", [
        ["08:05", "1"],
        ["12:05", "1"],
        ["15:05", "1"],
        ["19:05", "1"],
        ["08:50", "3"],
        ["09:35", "3"],
        ["10:20", "3"],
        ["11:05", "3"],
        ["13:05", "3"],
        ["14:05", "3"],
        ["16:05", "4"],
        ["16:50", "4"],
        ["17:35", "4"],
        ["18:20", "4"],
        ["09:05", "5"],
        ["10:05", "5"],
        ["18:05", "7"],
        ["17:05", "8"]
    ]],
    ["R Escola Secundária", [
        ["08:07", "1"],
        ["12:07", "1"],
        ["15:07", "1"],
        ["19:07", "1"],
        ["08:52", "3"],
        ["09:37", "3"],
        ["10:22", "3"],
        ["11:07", "3"],
        ["13:07", "3"],
        ["14:07", "3"],
        ["16:07", "4"],
        ["16:52", "4"],
        ["17:37", "4"],
        ["18:22", "4"],
        ["09:07", "5"],
        ["10:07", "5"],
        ["18:07", "7"],
        ["17:07", "8"]
    ]],
    ["R Da Cooperação 27", [
        ["08:08", "1"],
        ["12:08", "1"],
        ["15:08", "1"],
        ["19:08", "1"],
        ["08:53", "3"],
        ["09:38", "3"],
        ["10:23", "3"],
        ["11:08", "3"],
        ["13:08", "3"],
        ["14:08", "3"],
        ["16:08", "4"],
        ["16:53", "4"],
        ["17:38", "4"],
        ["18:23", "4"],
        ["09:08", "5"],
        ["10:08", "5"],
        ["18:08", "7"],
        ["17:08", "8"]
    ]],
    ["R Da Liberdade (Escola Do Valbom)", [
        ["08:08", "1"],
        ["12:08", "1"],
        ["15:08", "1"],
        ["19:08", "1"],
        ["08:53", "3"],
        ["09:38", "3"],
        ["10:23", "3"],
        ["11:08", "3"],
        ["13:08", "3"],
        ["14:08", "3"],
        ["16:08", "4"],
        ["16:53", "4"],
        ["17:38", "4"],
        ["18:23", "4"],
        ["09:08", "5"],
        ["10:08", "5"],
        ["18:08", "7"],
        ["17:08", "8"]
    ]],
    ["Av D Manuel I 25", [
        ["08:09", "1"],
        ["12:09", "1"],
        ["15:09", "1"],
        ["19:09", "1"],
        ["08:54", "3"],
        ["09:39", "3"],
        ["10:24", "3"],
        ["11:09", "3"],
        ["13:09", "3"],
        ["14:09", "3"],
        ["16:09", "4"],
        ["16:54", "4"],
        ["17:39", "4"],
        ["18:24", "4"],
        ["09:09", "5"],
        ["10:09", "5"],
        ["18:09", "7"],
        ["17:09", "8"]
    ]],
    ["Av Infante D João (Praia Dos Moinhos)", [
        ["08:10", "1"],
        ["12:10", "1"],
        ["15:10", "1"],
        ["19:10", "1"],
        ["08:55", "3"],
        ["09:40", "3"],
        ["10:25", "3"],
        ["11:10", "3"],
        ["13:10", "3"],
        ["14:10", "3"],
        ["16:10", "4"],
        ["16:55", "4"],
        ["17:40", "4"],
        ["18:25", "4"],
        ["09:10", "5"],
        ["10:10", "5"],
        ["18:10", "7"],
        ["17:10", "8"]
    ]],
    ["Passeio Caravelas (Fórum Cult Alcochete)", [
        ["08:11", "1"],
        ["12:11", "1"],
        ["15:11", "1"],
        ["19:11", "1"],
        ["08:56", "3"],
        ["09:41", "3"],
        ["10:26", "3"],
        ["11:11", "3"],
        ["13:11", "3"],
        ["14:11", "3"],
        ["16:11", "4"],
        ["16:56", "4"],
        ["17:41", "4"],
        ["18:26", "4"],
        ["09:11", "5"],
        ["10:11", "5"],
        ["18:11", "7"],
        ["17:11", "8"]
    ]],
    ["R 25 De Abril 8", [
        ["08:12", "1"],
        ["12:12", "1"],
        ["15:12", "1"],
        ["19:12", "1"],
        ["08:57", "3"],
        ["09:42", "3"],
        ["10:27", "3"],
        ["11:12", "3"],
        ["13:12", "3"],
        ["14:12", "3"],
        ["16:12", "4"],
        ["16:57", "4"],
        ["17:42", "4"],
        ["18:27", "4"],
        ["09:12", "5"],
        ["10:12", "5"],
        ["18:12", "7"],
        ["17:12", "8"]
    ]],
    ["Av D Manuel I 25", [
        ["08:13", "1"],
        ["12:13", "1"],
        ["15:13", "1"],
        ["19:13", "1"],
        ["08:58", "3"],
        ["09:43", "3"],
        ["10:28", "3"],
        ["11:13", "3"],
        ["13:13", "3"],
        ["14:13", "3"],
        ["16:13", "4"],
        ["16:58", "4"],
        ["17:43", "4"],
        ["18:28", "4"],
        ["09:13", "5"],
        ["10:13", "5"],
        ["18:13", "7"],
        ["17:13", "8"]
    ]],
    ["R Da Liberdade (Escola Do Valbom)", [
        ["08:14", "1"],
        ["12:14", "1"],
        ["15:14", "1"],
        ["19:14", "1"],
        ["08:59", "3"],
        ["09:44", "3"],
        ["10:29", "3"],
        ["11:14", "3"],
        ["13:14", "3"],
        ["14:14", "3"],
        ["16:14", "4"],
        ["16:59", "4"],
        ["17:44", "4"],
        ["18:29", "4"],
        ["09:14", "5"],
        ["10:14", "5"],
        ["18:14", "7"],
        ["17:14", "8"]
    ]],
    ["R Da Cooperação 27", [
        ["08:14", "1"],
        ["12:14", "1"],
        ["15:14", "1"],
        ["19:14", "1"],
        ["08:59", "3"],
        ["09:44", "3"],
        ["10:29", "3"],
        ["11:14", "3"],
        ["13:14", "3"],
        ["14:14", "3"],
        ["16:14", "4"],
        ["16:59", "4"],
        ["17:44", "4"],
        ["18:29", "4"],
        ["09:14", "5"],
        ["10:14", "5"],
        ["18:14", "7"],
        ["17:14", "8"]
    ]],
    ["R Escola Secundária", [
        ["08:15", "1"],
        ["12:15", "1"],
        ["15:15", "1"],
        ["19:15", "1"],
        ["09:00", "3"],
        ["09:45", "3"],
        ["10:30", "3"],
        ["11:15", "3"],
        ["13:15", "3"],
        ["14:15", "3"],
        ["16:15", "4"],
        ["17:00", "4"],
        ["17:45", "4"],
        ["18:30", "4"],
        ["09:15", "5"],
        ["10:15", "5"],
        ["18:15", "7"],
        ["17:15", "8"]
    ]],
    ["Av Da Restauração (Eb D Manuel I)", [
        ["08:16", "1"],
        ["12:16", "1"],
        ["15:16", "1"],
        ["19:16", "1"],
        ["09:01", "3"],
        ["09:46", "3"],
        ["10:31", "3"],
        ["11:16", "3"],
        ["13:16", "3"],
        ["14:16", "3"],
        ["16:16", "4"],
        ["17:01", "4"],
        ["17:46", "4"],
        ["18:31", "4"],
        ["09:16", "5"],
        ["10:16", "5"],
        ["18:16", "7"],
        ["17:16", "8"]
    ]],
    ["R Prof Leite Da Cunha (Biblioteca Mun)", [
        ["08:18", "1"],
        ["12:18", "1"],
        ["15:18", "1"],
        ["19:18", "1"],
        ["09:03", "3"],
        ["09:48", "3"],
        ["10:33", "3"],
        ["11:18", "3"],
        ["13:18", "3"],
        ["14:18", "3"],
        ["16:18", "4"],
        ["17:03", "4"],
        ["17:48", "4"],
        ["18:33", "4"],
        ["09:18", "5"],
        ["10:18", "5"],
        ["18:18", "7"],
        ["17:18", "8"]
    ]],
    ["R Dona Maria Teresa De Noronha", [
        ["08:18", "1"],
        ["12:18", "1"],
        ["15:18", "1"],
        ["19:18", "1"],
        ["09:03", "3"],
        ["09:48", "3"],
        ["10:33", "3"],
        ["11:18", "3"],
        ["13:18", "3"],
        ["14:18", "3"],
        ["16:18", "4"],
        ["17:03", "4"],
        ["17:48", "4"],
        ["18:33", "4"],
        ["09:18", "5"],
        ["10:18", "5"],
        ["18:18", "7"],
        ["17:18", "8"]
    ]],
    ["R Carlos M Rodrigues Francisco 408", [
        ["08:20", "1"],
        ["12:20", "1"],
        ["15:20", "1"],
        ["19:20", "1"],
        ["09:05", "3"],
        ["09:50", "3"],
        ["10:35", "3"],
        ["11:20", "3"],
        ["13:20", "3"],
        ["14:20", "3"],
        ["16:20", "4"],
        ["17:05", "4"],
        ["17:50", "4"],
        ["18:35", "4"],
        ["09:20", "5"],
        ["10:20", "5"],
        ["18:20", "7"],
        ["17:20", "8"]
    ]],
    ["R Do Láparo (Supermercado)", [
        ["08:20", "1"],
        ["12:20", "1"],
        ["15:20", "1"],
        ["19:20", "1"],
        ["09:05", "3"],
        ["09:50", "3"],
        ["10:35", "3"],
        ["11:20", "3"],
        ["13:20", "3"],
        ["14:20", "3"],
        ["16:20", "4"],
        ["17:05", "4"],
        ["17:50", "4"],
        ["18:35", "4"],
        ["09:20", "5"],
        ["10:20", "5"],
        ["18:20", "7"],
        ["17:20", "8"]
    ]],
    ["R Do Láparo (Estaleiro Municipal)", [
        ["08:21", "1"],
        ["12:21", "1"],
        ["15:21", "1"],
        ["19:21", "1"],
        ["09:06", "3"],
        ["09:51", "3"],
        ["10:36", "3"],
        ["11:21", "3"],
        ["13:21", "3"],
        ["14:21", "3"],
        ["16:21", "4"],
        ["17:06", "4"],
        ["17:51", "4"],
        ["18:36", "4"],
        ["09:21", "5"],
        ["10:21", "5"],
        ["18:21", "7"],
        ["17:21", "8"]
    ]],
    ["R Do Láparo X R Da Bracieira", [
        ["08:22", "1"],
        ["12:22", "1"],
        ["15:22", "1"],
        ["19:22", "1"],
        ["09:07", "3"],
        ["09:52", "3"],
        ["10:37", "3"],
        ["11:22", "3"],
        ["13:22", "3"],
        ["14:22", "3"],
        ["16:22", "4"],
        ["17:07", "4"],
        ["17:52", "4"],
        ["18:37", "4"],
        ["09:22", "5"],
        ["10:22", "5"],
        ["18:22", "7"],
        ["17:22", "8"]
    ]],
    ["R Do Láparo (X) R De Apolo", [
        ["08:23", "1"],
        ["12:23", "1"],
        ["15:23", "1"],
        ["19:23", "1"],
        ["09:08", "3"],
        ["09:53", "3"],
        ["10:38", "3"],
        ["11:23", "3"],
        ["13:23", "3"],
        ["14:23", "3"],
        ["16:23", "4"],
        ["17:08", "4"],
        ["17:53", "4"],
        ["18:38", "4"],
        ["09:23", "5"],
        ["10:23", "5"],
        ["18:23", "7"],
        ["17:23", "8"]
    ]],
    ["R Das Alfazemas (Pq Industrial Do Batel)", [
        ["08:24", "1"],
        ["12:24", "1"],
        ["15:24", "1"],
        ["19:24", "1"],
        ["09:09", "3"],
        ["09:54", "3"],
        ["10:39", "3"],
        ["11:24", "3"],
        ["13:24", "3"],
        ["14:24", "3"],
        ["16:24", "4"],
        ["17:09", "4"],
        ["17:54", "4"],
        ["18:39", "4"],
        ["09:24", "5"],
        ["10:24", "5"],
        ["18:24", "7"],
        ["17:24", "8"]
    ]],
    ["R Dos Damascos", [
        ["08:26", "1"],
        ["12:26", "1"],
        ["15:26", "1"],
        ["19:26", "1"],
        ["09:11", "3"],
        ["09:56", "3"],
        ["10:41", "3"],
        ["11:26", "3"],
        ["13:26", "3"],
        ["14:26", "3"],
        ["16:26", "4"],
        ["17:11", "4"],
        ["17:56", "4"],
        ["18:41", "4"],
        ["09:26", "5"],
        ["10:26", "5"],
        ["18:26", "7"],
        ["17:26", "8"]
    ]],
    ["Quebradas (Supermercado)", [
        ["08:28", "1"],
        ["12:28", "1"],
        ["15:28", "1"],
        ["19:28", "1"],
        ["09:13", "3"],
        ["09:58", "3"],
        ["10:43", "3"],
        ["11:28", "3"],
        ["13:28", "3"],
        ["14:28", "3"],
        ["16:28", "4"],
        ["17:13", "4"],
        ["17:58", "4"],
        ["18:43", "4"],
        ["09:28", "5"],
        ["10:28", "5"],
        ["18:28", "7"],
        ["17:28", "8"]
    ]],
    ["R Dos Damascos", [
        ["08:29", "1"],
        ["12:29", "1"],
        ["15:29", "1"],
        ["19:29", "1"],
        ["09:14", "3"],
        ["09:59", "3"],
        ["10:44", "3"],
        ["11:29", "3"],
        ["13:29", "3"],
        ["14:29", "3"],
        ["16:29", "4"],
        ["17:14", "4"],
        ["17:59", "4"],
        ["18:44", "4"],
        ["09:29", "5"],
        ["10:29", "5"],
        ["18:29", "7"],
        ["17:29", "8"]
    ]],
    ["R Das Alfazemas (Pq Industrial Do Batel)", [
        ["08:30", "1"],
        ["12:30", "1"],
        ["15:30", "1"],
        ["19:30", "1"],
        ["09:15", "3"],
        ["10:00", "3"],
        ["10:45", "3"],
        ["11:30", "3"],
        ["13:30", "3"],
        ["14:30", "3"],
        ["16:30", "4"],
        ["17:15", "4"],
        ["18:00", "4"],
        ["18:45", "4"],
        ["09:30", "5"],
        ["10:30", "5"],
        ["18:30", "7"],
        ["17:30", "8"]
    ]],
    ["R Do Láparo (X) R De Apolo", [
        ["08:32", "1"],
        ["12:32", "1"],
        ["15:32", "1"],
        ["19:32", "1"],
        ["09:17", "3"],
        ["10:02", "3"],
        ["10:47", "3"],
        ["11:32", "3"],
        ["13:32", "3"],
        ["14:32", "3"],
        ["16:32", "4"],
        ["17:17", "4"],
        ["18:02", "4"],
        ["18:47", "4"],
        ["09:32", "5"],
        ["10:32", "5"],
        ["18:32", "7"],
        ["17:32", "8"]
    ]],
    ["R Do Láparo X R Da Bracieira", [
        ["08:33", "1"],
        ["12:33", "1"],
        ["15:33", "1"],
        ["19:33", "1"],
        ["09:18", "3"],
        ["10:03", "3"],
        ["10:48", "3"],
        ["11:33", "3"],
        ["13:33", "3"],
        ["14:33", "3"],
        ["16:33", "4"],
        ["17:18", "4"],
        ["18:03", "4"],
        ["18:48", "4"],
        ["09:33", "5"],
        ["10:33", "5"],
        ["18:33", "7"],
        ["17:33", "8"]
    ]],
    ["R Do Láparo (Estaleiro Municipal)", [
        ["08:33", "1"],
        ["12:33", "1"],
        ["15:33", "1"],
        ["19:33", "1"],
        ["09:18", "3"],
        ["10:03", "3"],
        ["10:48", "3"],
        ["11:33", "3"],
        ["13:33", "3"],
        ["14:33", "3"],
        ["16:33", "4"],
        ["17:18", "4"],
        ["18:03", "4"],
        ["18:48", "4"],
        ["09:33", "5"],
        ["10:33", "5"],
        ["18:33", "7"],
        ["17:33", "8"]
    ]],
    ["R Do Láparo (Supermercado)", [
        ["08:34", "1"],
        ["12:34", "1"],
        ["15:34", "1"],
        ["19:34", "1"],
        ["09:19", "3"],
        ["10:04", "3"],
        ["10:49", "3"],
        ["11:34", "3"],
        ["13:34", "3"],
        ["14:34", "3"],
        ["16:34", "4"],
        ["17:19", "4"],
        ["18:04", "4"],
        ["18:49", "4"],
        ["09:34", "5"],
        ["10:34", "5"],
        ["18:34", "7"],
        ["17:34", "8"]
    ]],
    ["R Carlos M Rodrigues Francisco 408", [
        ["08:35", "1"],
        ["12:35", "1"],
        ["15:35", "1"],
        ["19:35", "1"],
        ["09:20", "3"],
        ["10:05", "3"],
        ["10:50", "3"],
        ["11:35", "3"],
        ["13:35", "3"],
        ["14:35", "3"],
        ["16:35", "4"],
        ["17:20", "4"],
        ["18:05", "4"],
        ["18:50", "4"],
        ["09:35", "5"],
        ["10:35", "5"],
        ["18:35", "7"],
        ["17:35", "8"]
    ]],
    ["R Carlos M Rodri Franc 229(Esc Mt Novo)", [
        ["08:35", "1"],
        ["12:35", "1"],
        ["15:35", "1"],
        ["19:35", "1"],
        ["09:20", "3"],
        ["10:05", "3"],
        ["10:50", "3"],
        ["11:35", "3"],
        ["13:35", "3"],
        ["14:35", "3"],
        ["16:35", "4"],
        ["17:20", "4"],
        ["18:05", "4"],
        ["18:50", "4"],
        ["09:35", "5"],
        ["10:35", "5"],
        ["18:35", "7"],
        ["17:35", "8"]
    ]]
]